<svg xmlns="http://www.w3.org/2000/svg" viewBox="5720.241 1284 21.672 21.672">
  <defs>
    <style>
      .cls-1 {
        fill: #e36c41;
        fill-rule: evenodd;
      }
    </style>
  </defs>
  <path id="Path_89" data-name="Path 89" class="cls-1" d="M21.672,2.5l-2.032,2.5v.416A8.865,8.865,0,0,1,19.5,6.737,16.125,16.125,0,0,1,14.9,18.3C7.721,25.368,0,19.13,0,19.13c6.1,0,6.1-2.5,6.1-2.5-1.354,0-4.063-3.327-4.063-3.327.677.832,2.032,0,2.032,0C.677,10.771.677,8.318.677,8.318c.677.832,2.032,0,2.032,0A6.686,6.686,0,0,1,1.354.832c.677,4.159,9.481,5.822,9.481,5.822l.1-.083a12.381,12.381,0,0,1-.1-1.58C10.836,2,12.8,0,15.238,0a4.061,4.061,0,0,1,3.318,1.913l.406-.25L20.995,0,19.64,3.327Z" transform="translate(5720.241 1284)"/>
</svg>
