<svg xmlns="http://www.w3.org/2000/svg" viewBox="4220.964 -14 13.11 15">
  <defs>
    <style>
      .cls-1 {
        fill: #e36c41;
        fill-rule: evenodd;
      }
    </style>
  </defs>
  <path id="Path_71" data-name="Path 71" class="cls-1" d="M12.52,5.428,8.791,9.668c-.02.023-.041.023-.061.047a.5.5,0,0,0-.082.117V9.808a2.115,2.115,0,0,1-2.889.07c-.02-.023-.061-.023-.082-.07l-.041-.047L5.123,9.2l-.348-.4a.531.531,0,0,1,0-.679.384.384,0,0,1,.594,0l.307.351h0c.02.023.02.047.041.07l.492.562a1.362,1.362,0,0,0,1.967-.094L9.221,7.817l2.684-3.068a1.692,1.692,0,0,0-.041-2.108L10.779,1.376a1.237,1.237,0,0,0-1.844-.047l-.287.328-.9,1.031a.392.392,0,0,1-.307.141.423.423,0,0,1-.307-.141.531.531,0,0,1,0-.679l.9-1.031L8.32.65A1.972,1.972,0,0,1,11.352.7l1.086,1.241A2.734,2.734,0,0,1,12.52,5.428Zm-4.467.328.307.351a.531.531,0,0,1,0,.679.392.392,0,0,1-.307.141.423.423,0,0,1-.307-.141l-.307-.351-.594-.679a1.153,1.153,0,0,0-1.783,0L1.209,10.183a1.592,1.592,0,0,0,0,2.038L2.4,13.579a1.153,1.153,0,0,0,1.783,0l.307-.351.9-1.031a.384.384,0,0,1,.594,0,.531.531,0,0,1,0,.679l-.9,1.031-.307.351a1.922,1.922,0,0,1-2.971,0L.615,12.9a2.653,2.653,0,0,1,0-3.4L4.488,5.077a1.922,1.922,0,0,1,2.971,0Z" transform="translate(4220.964 -13.961)"/>
</svg>
