<svg xmlns="http://www.w3.org/2000/svg" viewBox="5683 1284 21.672 21.672">
  <defs>
    <style>
      .cls-1 {
        fill: #e36c41;
        fill-rule: evenodd;
      }
    </style>
  </defs>
  <path id="Path_88" data-name="Path 88" class="cls-1" d="M19.621,21.672H2.051A2.065,2.065,0,0,1,0,19.621V2.051A2.065,2.065,0,0,1,2.051,0H19.582a2.073,2.073,0,0,1,2.09,2.051V19.582A2.073,2.073,0,0,1,19.621,21.672ZM5.341,4.644A1.443,1.443,0,0,0,3.87,6.192,1.457,1.457,0,0,0,5.3,7.74h0A1.465,1.465,0,0,0,6.772,6.192,1.414,1.414,0,0,0,5.341,4.644ZM6.966,8.669H4.025V17.8H6.966Zm11.61,4.063c0-2.709-1.393-4.218-3.406-4.218a3.035,3.035,0,0,0-2.748,1.471V8.746H9.288c.039.813,0,9.056,0,9.056h3.135V12.887a1.74,1.74,0,0,1,.116-.7,1.672,1.672,0,0,1,1.548-1.084c1.084,0,1.432.813,1.432,2.012V17.8h3.057Zm-6.153-2.709Z" transform="translate(5683 1284)"/>
</svg>
